<?xml version="1.0" encoding="utf-8"?>
<!-- Generator: Adobe Illustrator 18.1.1, SVG Export Plug-In . SVG Version: 6.00 Build 0)  -->
<svg version="1.1" id="Layer_1" xmlns="http://www.w3.org/2000/svg" xmlns:xlink="http://www.w3.org/1999/xlink" x="0px" y="0px"
	 viewBox="0 0 34 34" enable-background="new 0 0 34 34" xml:space="preserve">
<path fill="#919191" d="M17,34C7.6,34,0,26.4,0,17S7.6,0,17,0c9.4,0,17,7.6,17,17S26.4,34,17,34z M17,1C8.2,1,1,8.2,1,17
	s7.2,16,16,16c8.8,0,16-7.2,16-16S25.8,1,17,1z"/>
<g>
	<path fill="#919191" d="M24.3,18L24.3,18c-0.1,0-0.2,0-0.3-0.1C22.2,16,19.7,15,17,15c-2.7,0-5.2,1-7,2.9c-0.1,0.1-0.4,0.1-0.5,0
		l-1.2-1.2c-0.1-0.1-0.1-0.2-0.1-0.3s0-0.2,0.1-0.3c2.3-2.3,5.5-3.6,8.8-3.6s6.4,1.3,8.8,3.6c0.1,0.1,0.1,0.2,0.1,0.3s0,0.2-0.1,0.3
		l-1.2,1.2C24.5,18,24.4,18,24.3,18z M17,14.3c2.7,0,5.3,1,7.3,2.9l0.7-0.7c-2.2-2-5-3.2-8-3.2s-5.8,1.1-8,3.2l0.7,0.7
		C11.7,15.3,14.3,14.3,17,14.3z"/>
	<path fill="#919191" d="M26.8,15.6c-0.1,0-0.2,0-0.3-0.1c-2.5-2.5-5.9-3.9-9.5-3.9c-3.6,0-7,1.4-9.5,3.9c-0.1,0.1-0.4,0.1-0.5,0
		l-1.2-1.2c-0.1-0.1-0.1-0.2-0.1-0.3s0-0.2,0.1-0.3c3-3,7-4.7,11.3-4.7c4.3,0,8.3,1.7,11.3,4.7c0.1,0.1,0.1,0.2,0.1,0.3
		s0,0.2-0.1,0.3L27,15.4C27,15.5,26.9,15.6,26.8,15.6z M17,10.8c3.7,0,7.1,1.4,9.8,3.9l0.7-0.7c-2.8-2.7-6.5-4.2-10.5-4.2
		c-3.9,0-7.6,1.5-10.5,4.2l0.7,0.7C9.9,12.1,13.3,10.8,17,10.8z"/>
	<path fill="#919191" d="M21.8,20.5L21.8,20.5c-0.1,0-0.2,0-0.3-0.1c-1.2-1.2-2.8-1.9-4.6-1.9c-1.7,0-3.3,0.7-4.6,1.9
		c-0.1,0.1-0.4,0.1-0.5,0l-1.2-1.2c-0.1-0.1-0.1-0.2-0.1-0.3s0-0.2,0.1-0.3c1.7-1.7,3.9-2.6,6.3-2.6c2.4,0,4.6,0.9,6.3,2.6
		c0.1,0.1,0.1,0.4,0,0.5l-1.2,1.2C22,20.5,21.9,20.5,21.8,20.5z M17,17.8c1.8,0,3.5,0.7,4.8,1.9l0.7-0.7c-1.5-1.4-3.5-2.1-5.5-2.1
		c-2.1,0-4,0.8-5.5,2.1l0.7,0.7C13.5,18.4,15.2,17.8,17,17.8z"/>
	<path fill="#919191" d="M16.9,25.2c-1.4,0-2.5-1.1-2.5-2.5c0-1.4,1.1-2.5,2.5-2.5c1.4,0,2.5,1.1,2.5,2.5
		C19.4,24.1,18.3,25.2,16.9,25.2z M16.9,21.1c-0.9,0-1.7,0.8-1.7,1.7s0.8,1.7,1.7,1.7s1.7-0.8,1.7-1.7S17.9,21.1,16.9,21.1z"/>
</g>
</svg>
